<svg width="24" height="14" viewBox="0 0 24 14" fill="none" xmlns="http://www.w3.org/2000/svg">
<path d="M10.9393 13.0607C11.5251 13.6464 12.4749 13.6464 13.0607 13.0607L22.6066 3.51473C23.1924 2.92894 23.1924 1.9792 22.6066 1.39341C22.0208 0.807623 21.0711 0.807622 20.4853 1.39341L12 9.87868L3.51473 1.39339C2.92894 0.807602 1.9792 0.807601 1.39341 1.39339C0.807622 1.97917 0.807621 2.92892 1.39341 3.51471L10.9393 13.0607ZM10.5 11L10.5 12L13.5 12L13.5 11L10.5 11Z" fill="white"/>
</svg>
